../results/B1.bzip2.res:LAB3_CPI                	 :      1.002
../results/B1.gcc.res:LAB3_CPI                	 :      1.003
../results/B1.libq.res:LAB3_CPI                	 :      1.000
../results/B1.mcf.res:LAB3_CPI                	 :      1.121
../results/B2.bzip2.res:LAB3_CPI                	 :      1.000
../results/B2.gcc.res:LAB3_CPI                	 :      1.000
../results/B2.libq.res:LAB3_CPI                	 :      1.000
../results/B2.mcf.res:LAB3_CPI                	 :      1.000
../results/C1.bzip2.res:LAB3_CPI                	 :      0.503
../results/C1.gcc.res:LAB3_CPI                	 :      0.504
../results/C1.libq.res:LAB3_CPI                	 :      0.500
../results/C1.mcf.res:LAB3_CPI                	 :      0.693
../results/C2.bzip2.res:LAB3_CPI                	 :      0.500
../results/C2.gcc.res:LAB3_CPI                	 :      0.500
../results/C2.libq.res:LAB3_CPI                	 :      0.500
../results/C2.mcf.res:LAB3_CPI                	 :      0.500
