
   0 M	.................................................
   5 M	.................................................
  10 M	.................................................
  15 M	.................................................
  20 M	.................................................
  25 M	.................................................
  30 M	.................................................
  35 M	.................................................
  40 M	.................................................
  45 M	.................................................
  50 M	.................................................
  55 M	.................................................
  60 M	.................................................
  65 M	.................................................
  70 M	.................................................
  75 M	.................................................
  80 M	.................................................
  85 M	.................................................
  90 M	.................................................
  95 M	.................................................
 100 M	.................................................
 105 M	.................................................
 110 M	.................................................
 115 M	...................

CYCLES      			 :  116965541

CORE_0_INST         		 :  100000000
CORE_0_CYCLES       		 :  116965540
CORE_0_IPC          		 :      0.855

MEMSYS_IFETCH_ACCESS  		 :  100000000
MEMSYS_LOAD_ACCESS    		 :   39627441
MEMSYS_STORE_ACCESS   		 :   15885877
MEMSYS_IFETCH_AVGDELAY		 :      1.000
MEMSYS_LOAD_AVGDELAY  		 :      1.428
MEMSYS_STORE_AVGDELAY 		 :      1.994

DCACHE_READ_ACCESS    		 :   39627441
DCACHE_WRITE_ACCESS   		 :   15885877
DCACHE_READ_MISS      		 :     655444
DCACHE_WRITE_MISS     		 :     218653
DCACHE_READ_MISSPERC  		 :      1.654
DCACHE_WRITE_MISSPERC 		 :      1.376
DCACHE_DIRTY_EVICTS   		 :     325242

ICACHE_READ_ACCESS    		 :  100000000
ICACHE_WRITE_ACCESS   		 :          0
ICACHE_READ_MISS      		 :        222
ICACHE_WRITE_MISS     		 :          0
ICACHE_READ_MISSPERC  		 :      0.000
ICACHE_WRITE_MISSPERC 		 :      0.000
ICACHE_DIRTY_EVICTS   		 :          0

L2CACHE_READ_ACCESS    		 :     874319
L2CACHE_WRITE_ACCESS   		 :     325242
L2CACHE_READ_MISS      		 :     192329
L2CACHE_WRITE_MISS     		 :        124
L2CACHE_READ_MISSPERC  		 :     21.998
L2CACHE_WRITE_MISSPERC 		 :      0.038
L2CACHE_DIRTY_EVICTS   		 :     123523

DRAM_READ_ACCESS		 :     192453
DRAM_WRITE_ACCESS		 :     123523
DRAM_READ_DELAY_AVG		 :    124.871
DRAM_WRITE_DELAY_AVG		 :    145.000

